"curing","cement","strength"
"1","A",14
"1","A",14
"1","A",10
"1","B",6
"1","B",9
"1","B",7
"1","C",22
"1","C",25
"1","C",20
"1","D",10
"1","D",11
"1","D",13
"2","A",15
"2","A",12
"2","A",10
"2","B",8
"2","B",4
"2","B",11
"2","C",20
"2","C",15
"2","C",19
"2","D",7
"2","D",9
"2","D",10
"3","A",10
"3","A",8
"3","A",10
"3","B",7
"3","B",4
"3","B",7
"3","C",18
"3","C",21
"3","C",22
"3","D",7
"3","D",6
"3","D",6
